CMIU ID #,IMEI (Device ID),ICCID (4G Sim ID)
400002570,353238063156219,89148000002036032271
400002372,353238063157498,89148000002036033030
400002374,353238063146400,89148000002036033048
400002572,353238063156318,89148000002036032230